{
    "users": [
      {
        "id": 1,
        "name": "Jack Jackson",
        "photo": "assets/img/jack.png",
        "role": "Admin",
        "department": "Creative",
        "arrival_date": "2017-04-23T10:00:00Z",
        "status": "onsite"
      },
      {
        "id": 2,
        "name": "Victoria Ferguson",
        "photo": "assets/img/victoria.png",
        "role": "Admin",
        "department": "Management",
        "arrival_date": "2017-05-02T11:00:00Z",
        "status": "onsite"
      }
    ]
  }